{
  "front-version": "2.17.2",
  "version": 3,
  "nodes": [
    {
      "type": "Project",
      "description": "",
      "id": "2ad843d1-2711-463b-901a-f132151c2f72",
      "lastModified": "2018-05-17T11:31:44.683+03:00",
      "name": "FuelConsumptionApp"
    },
    {
      "uriEditor": true,
      "type": "Request",
      "method": {
        "requestBody": true,
        "link": "http://tools.ietf.org/html/rfc7231#section-4.3.3",
        "name": "POST"
      },
      "body": {
        "formBody": {
          "overrideContentType": true,
          "encoding": "application/x-www-form-urlencoded",
          "items": []
        },
        "bodyType": "Text",
        "autoSetLength": true,
        "textBody": "[\n  {\n    \"fuelPrice\" : \"1.37\",\n    \"volumeLiters\" : \"30\",\n    \"purchasingDate\" : \"2009-05-20\",\n    \"fuelType\" : \"D\",\n    \"driverCode\": \"123\"\n  }, \n  {\n    \"fuelPrice\" : \"1.25\",\n    \"volumeLiters\" : \"15.78\",\n    \"purchasingDate\" : \"2018-05-09\",\n    \"fuelType\" : \"95\",\n    \"driverCode\": \"123\"\n  }\n]"
      },
      "headersType": "Form",
      "uri": {
        "query": {
          "delimiter": "&",
          "items": []
        },
        "scheme": {
          "name": "http",
          "version": "V11"
        },
        "host": "localhost:8080",
        "path": "/fuel_consumption_app/rest/add_fuel_data"
      },
      "id": "9a753f03-feb9-46b9-bf17-d8463393a8e9",
      "lastModified": "2018-05-16T16:28:04.903+03:00",
      "name": "Add Fuel Consumption Info",
      "headers": [
        {
          "enabled": true,
          "name": "Content-Type",
          "value": "application/json"
        }
      ],
      "metaInfo": {},
      "parentId": "2ad843d1-2711-463b-901a-f132151c2f72"
    },
    {
      "type": "Request",
      "method": {
        "requestBody": true,
        "link": "http://tools.ietf.org/html/rfc7231#section-4.3.3",
        "name": "POST"
      },
      "body": {
        "formBody": {
          "overrideContentType": true,
          "encoding": "application/x-www-form-urlencoded",
          "items": []
        },
        "bodyType": "Text",
        "autoSetLength": true,
        "textBody": "[\n  {\n    \"driverCode\" : \"122\",\n    \"name\" : \"Olesja\",\n    \"surname\" : \"Smirnov\"\n  }, \n  {\n\t\"driverCode\" : \"121\",\n    \"name\" : \"Katrin\",\n    \"surname\" : \"Nevolainen\"\n  }\n]"
      },
      "headersType": "Form",
      "uri": {
        "query": {
          "delimiter": "&",
          "items": []
        },
        "scheme": {
          "name": "http",
          "version": "V11"
        },
        "host": "localhost:8080",
        "path": "/fuel_consumption_app/rest/add_new_driver"
      },
      "id": "08a1eb1b-be64-4981-a29a-5264ced92ead",
      "lastModified": "2018-05-17T09:50:11.737+03:00",
      "name": "Add New Driver",
      "headers": [
        {
          "enabled": true,
          "name": "Content-Type",
          "value": "application/json"
        }
      ],
      "metaInfo": {},
      "parentId": "2ad843d1-2711-463b-901a-f132151c2f72"
    },
    {
      "type": "Request",
      "method": {
        "requestBody": true,
        "link": "http://tools.ietf.org/html/rfc7231#section-4.3.3",
        "name": "POST"
      },
      "body": {
        "formBody": {
          "overrideContentType": true,
          "encoding": "application/x-www-form-urlencoded",
          "items": []
        },
        "bodyType": "Text",
        "autoSetLength": true,
        "textBody": "{\n\n}"
      },
      "headersType": "Form",
      "uri": {
        "query": {
          "delimiter": "&",
          "items": []
        },
        "scheme": {
          "name": "http",
          "version": "V11"
        },
        "host": "localhost:8080",
        "path": "/fuel_consumption_app/rest/delete_fuel_data"
      },
      "id": "be752a00-d243-4475-84f9-bea6774dd455",
      "lastModified": "2018-05-16T10:46:54.443+03:00",
      "name": "Delete Fuel Data",
      "headers": [
        {
          "enabled": true,
          "name": "Content-Type",
          "value": "application/json"
        }
      ],
      "metaInfo": {},
      "parentId": "2ad843d1-2711-463b-901a-f132151c2f72"
    },
    {
      "uriEditor": true,
      "type": "Request",
      "method": {
        "link": "http://tools.ietf.org/html/rfc7231#section-4.3.1",
        "name": "GET"
      },
      "body": {
        "formBody": {
          "overrideContentType": true,
          "encoding": "application/x-www-form-urlencoded",
          "items": []
        },
        "bodyType": "Text",
        "autoSetLength": true
      },
      "headersType": "Form",
      "uri": {
        "query": {
          "delimiter": "&",
          "items": [
            {
              "enabled": true,
              "name": "start_year",
              "value": "2018"
            },
            {
              "enabled": true,
              "name": "start_month",
              "value": "5"
            },
            {
              "enabled": true,
              "name": "month_count",
              "value": "1"
            },
            {
              "name": "driver_code",
              "value": "123"
            }
          ]
        },
        "scheme": {
          "name": "http",
          "version": "V11"
        },
        "host": "localhost:8080",
        "path": "/fuel_consumption_app/rest/get_consumption_statistics_for_month"
      },
      "id": "c55d7707-70a3-40c8-853a-41fdf94d2c1f",
      "lastModified": "2018-05-14T10:41:46.116+03:00",
      "name": "Get Consumption Statistics For Month",
      "headers": [],
      "metaInfo": {},
      "parentId": "2ad843d1-2711-463b-901a-f132151c2f72"
    },
    {
      "type": "Request",
      "method": {
        "link": "http://tools.ietf.org/html/rfc7231#section-4.3.1",
        "name": "GET"
      },
      "body": {
        "formBody": {
          "overrideContentType": true,
          "encoding": "application/x-www-form-urlencoded",
          "items": []
        },
        "bodyType": "Text",
        "autoSetLength": true
      },
      "headersType": "Form",
      "uri": {
        "query": {
          "delimiter": "&",
          "items": []
        },
        "scheme": {
          "name": "http",
          "version": "V11"
        },
        "host": "localhost:8080",
        "path": "/fuel_consumption_app/rest/get_drivers"
      },
      "id": "0ecbeee6-1347-4c95-bb34-e5ceb98852fd",
      "lastModified": "2018-05-15T15:56:57.329+03:00",
      "name": "Get Drivers",
      "headers": [],
      "metaInfo": {},
      "parentId": "2ad843d1-2711-463b-901a-f132151c2f72"
    },
    {
      "uriEditor": true,
      "type": "Request",
      "method": {
        "link": "http://tools.ietf.org/html/rfc7231#section-4.3.1",
        "name": "GET"
      },
      "body": {
        "formBody": {
          "overrideContentType": true,
          "encoding": "application/x-www-form-urlencoded",
          "items": []
        },
        "bodyType": "Text",
        "autoSetLength": true
      },
      "headersType": "Form",
      "uri": {
        "query": {
          "delimiter": "&",
          "items": []
        },
        "scheme": {
          "name": "http",
          "version": "V11"
        },
        "host": "localhost:8080",
        "path": "/fuel_consumption_app/rest/get_fuel_consumption_all_data"
      },
      "id": "8d0a720b-bca9-468f-b06f-8da6b0cd7f1e",
      "lastModified": "2018-05-15T10:46:55.931+03:00",
      "name": "Get Fuel Consumption All Data",
      "headers": [],
      "metaInfo": {},
      "parentId": "2ad843d1-2711-463b-901a-f132151c2f72"
    },
    {
      "uriEditor": true,
      "type": "Request",
      "method": {
        "link": "http://tools.ietf.org/html/rfc7231#section-4.3.1",
        "name": "GET"
      },
      "body": {
        "formBody": {
          "overrideContentType": true,
          "encoding": "application/x-www-form-urlencoded",
          "items": []
        },
        "bodyType": "Text",
        "autoSetLength": true
      },
      "headersType": "Form",
      "uri": {
        "query": {
          "delimiter": "&",
          "items": [
            {
              "enabled": true,
              "name": "start_year",
              "value": "2018"
            },
            {
              "enabled": true,
              "name": "start_month",
              "value": "5"
            },
            {
              "enabled": true,
              "name": "month_count",
              "value": "10"
            },
            {
              "enabled": true,
              "name": "driver_code",
              "value": "123"
            }
          ]
        },
        "scheme": {
          "name": "http",
          "version": "V11"
        },
        "host": "localhost:8080",
        "path": "/fuel_consumption_app/rest/get_fuel_consumption_cost_for_month"
      },
      "id": "acd4961b-6015-455a-a515-b612b1c0e29c",
      "lastModified": "2018-05-14T15:16:48.166+03:00",
      "name": "Get Fuel Consumption Report By Month",
      "headers": [],
      "metaInfo": {},
      "parentId": "2ad843d1-2711-463b-901a-f132151c2f72"
    },
    {
      "uriEditor": true,
      "type": "Request",
      "method": {
        "link": "http://tools.ietf.org/html/rfc7231#section-4.3.1",
        "name": "GET"
      },
      "body": {
        "formBody": {
          "overrideContentType": true,
          "encoding": "application/x-www-form-urlencoded",
          "items": []
        },
        "bodyType": "Text",
        "autoSetLength": true
      },
      "headersType": "Form",
      "uri": {
        "query": {
          "delimiter": "&",
          "items": [
            {
              "name": "start_year",
              "value": "2018"
            },
            {
              "name": "start_month",
              "value": "5"
            },
            {
              "name": "driver_code",
              "value": "123"
            }
          ]
        },
        "scheme": {
          "name": "http",
          "version": "V11"
        },
        "host": "localhost:8080",
        "path": "/fuel_consumption_app/rest/get_fuel_data_all_by_month"
      },
      "id": "84d3681b-62c3-4048-bee9-3e5734258d2f",
      "lastModified": "2018-05-17T11:31:44.683+03:00",
      "name": "Get Fuel Data All By Month",
      "headers": [],
      "metaInfo": {},
      "parentId": "2ad843d1-2711-463b-901a-f132151c2f72"
    },
    {
      "type": "Request",
      "method": {
        "link": "http://tools.ietf.org/html/rfc7231#section-4.3.1",
        "name": "GET"
      },
      "body": {
        "formBody": {
          "overrideContentType": true,
          "encoding": "application/x-www-form-urlencoded",
          "items": []
        },
        "bodyType": "Text",
        "autoSetLength": true
      },
      "headersType": "Form",
      "uri": {
        "query": {
          "delimiter": "&",
          "items": []
        },
        "scheme": {
          "name": "http",
          "version": "V11"
        },
        "host": "localhost:8080",
        "path": "/fuel_consumption_app/rest/get_fuel_type_menu"
      },
      "id": "8d4d8f15-8fd8-48e6-bd8d-5be970e1692d",
      "lastModified": "2018-05-16T14:17:25.623+03:00",
      "name": "Get Fuel Type Menu",
      "headers": [],
      "metaInfo": {},
      "parentId": "2ad843d1-2711-463b-901a-f132151c2f72"
    },
    {
      "uriEditor": true,
      "type": "Request",
      "method": {
        "link": "http://tools.ietf.org/html/rfc7231#section-4.3.1",
        "name": "GET"
      },
      "body": {
        "formBody": {
          "overrideContentType": true,
          "encoding": "application/x-www-form-urlencoded",
          "items": []
        },
        "bodyType": "Text",
        "autoSetLength": true
      },
      "headersType": "Form",
      "uri": {
        "query": {
          "delimiter": "&",
          "items": [
            {
              "enabled": true,
              "name": "fuel_data_id",
              "value": "26"
            }
          ]
        },
        "scheme": {
          "name": "http",
          "version": "V11"
        },
        "host": "localhost:8080",
        "path": "/fuel_consumption_app/rest/get_one_fuel_data"
      },
      "id": "24199445-1a38-4fd1-b41f-8455ee3a4b35",
      "lastModified": "2018-05-15T10:47:49.422+03:00",
      "name": "Get One Fuel Data",
      "headers": [],
      "metaInfo": {},
      "parentId": "2ad843d1-2711-463b-901a-f132151c2f72"
    },
    {
      "type": "Request",
      "method": {
        "requestBody": true,
        "link": "http://tools.ietf.org/html/rfc7231#section-4.3.3",
        "name": "POST"
      },
      "body": {
        "formBody": {
          "overrideContentType": true,
          "encoding": "application/x-www-form-urlencoded",
          "items": []
        },
        "bodyType": "Text",
        "autoSetLength": true,
        "textBody": "{\n  \"driverCode\" : \"\",\n  \"fuelPrice\" : \"0\",\n  \"volumeLitres\" : \"0\",\n  \"purchasingDate\" : \"\",\n  \"fuelType\" : \"\"\n}"
      },
      "headersType": "Form",
      "uri": {
        "query": {
          "delimiter": "&",
          "items": []
        },
        "scheme": {
          "name": "http",
          "version": "V11"
        },
        "host": "localhost:8080",
        "path": "/fuel_consumption_app/rest/modify_fuel_data"
      },
      "id": "de90be1b-4fa4-4ce7-9240-77311be09434",
      "lastModified": "2018-05-15T10:50:23.540+03:00",
      "name": "Modify Fuel Data",
      "headers": [
        {
          "enabled": true,
          "name": "Content-Type",
          "value": "application/json"
        }
      ],
      "metaInfo": {},
      "parentId": "2ad843d1-2711-463b-901a-f132151c2f72"
    }
  ]
}